<svg xmlns="http://www.w3.org/2000/svg" viewBox="0 0 820 820">
  <defs>
    <clipPath id="profile">
      <rect x="0" y="0" width="820" height="820" />
    </clipPath>
  </defs>
  <g clip-path="url(#profile)">
          <rect fill="white" width="820" height="820"/>
    <g transform="scale(2.05)">
      <g font-family="none" font-size="none" font-weight="none" stroke-miterlimit="10" style="mix-blend-mode:normal" text-anchor="none">
<g fill="#596ddb" id="symbol" stroke="#596ddb">
<g id="logo">
<path d="m348.63 41.235h1.6933 0.73045c11.222-0.03321 11.222-0.03321 15.273 3.951 2.457 2.5898 3.3534 5.4451 3.5526 8.9314 0.03321 0.19921 0.03321 0.43163 0.0664 0.66403 0.23242 4.0838-0.26562 8.2341-0.92966 12.285-0.03321 0.33203-0.03321 0.33203-0.0996 0.66403-0.83005 5.2791-1.8593 10.525-2.8886 15.804-0.13281 0.56443-0.23242 1.1621-0.33203 1.7265-0.0664 0.19921-0.0996 0.39842-0.13281 0.59763-0.63084 3.2538-1.2285 6.5076-1.8593 9.7282-3.4862 18.693-7.2712 37.319-11.388 55.879-2.2245 9.9938-4.117 20.087-6.0096 30.147-1.7929 9.363-3.7186 18.693-5.6775 28.022-1.3613 6.3416-2.6562 12.65-3.9178 18.992-1.1289 5.6443-2.2577 11.289-3.5194 16.933-0.0664 0.26562-0.0996 0.53123-0.166 0.79685-0.63084 2.7226-1.2949 5.4451-2.0585 8.1345-0.0996 0.33203-0.0996 0.33203-0.19921 0.69725-1.1621 3.785-2.955 7.1384-6.4744 9.1638-1.7929 0.96285-3.5526 1.0625-5.5447 1.0625h-0.76364-2.457-1.7597c-1.2617 0-2.5234 0.03321-3.785 0.03321h-6.076c-3.9842 0.03321-7.9353 0.0664-11.886 0.0664-6.0096 0.03321-12.019 0.03321-18.029 0.0664h-1.0293c-8.9645 0.0664-17.896 0.13281-26.86 0.33203-1.3281 0.03321-2.623 0.0664-3.9178 0.0996-0.29882 0-0.56443 0-0.86325 0.03321-0.83005 0-1.6601 0-2.4901 0.03321h-0.79685c-0.59763 0-1.2285-0.03321-1.8261-0.0664-0.83005-0.83005-0.76364-1.2949-0.76364-2.4237v-0.76364-1.5605c-0.03321-0.26562-0.03321-0.56443-0.03321-0.83005-0.0996-10.425-2.1913-19.423-8.8317-27.624-0.23242-0.29882-0.46482-0.56443-0.69725-0.86325-4.3162-5.1463-10.06-7.7029-16.568-8.7653-0.29882-0.03321-0.29882-0.03321-0.56443-0.0996-2.2909-0.33203-4.5819-0.29882-6.906-0.29882h-0.66403c-8.4333 0-16.003 2.0917-22.743 7.3708-0.33203 0.23242-0.33203 0.23242-0.63084 0.49803-6.242 4.9803-10.625 13.281-11.654 21.083-0.03321 1.0625-0.03321 2.0917 0 3.1542v1.8261c0.03321 0.96285 0.03321 1.9257 0.0664 2.8886v2.789c0.03321 0.43163 0.03321 0.43163 0.03321 0.86325v0.79685 0.73045c-0.0996 0.56443-0.0996 0.56443-0.53123 0.92966-0.69725 0.36522-1.1289 0.36522-1.9257 0.36522-0.26562-0.03321-0.56443-0.03321-0.83005-0.03321-0.33203 0-0.63084-0.03321-0.92966-0.03321-0.33203 0-0.66403-0.03321-0.99606-0.03321-0.69725 0-1.4277-0.03321-2.1581-0.0664-1.9921-0.03321-3.9842-0.0996-5.9764-0.13281h-0.63084c-5.3787-0.13281-10.757-0.13281-16.136-0.13281h-0.73045-8.9978-6.1424-6.0428-3.5526c-5.4119 0-10.824 0.0664-16.203 0.29882-2.6562 0.0996-5.3123 0.13281-7.9353 0.166h-1.5937c-3.8182 0.03321-7.3708 0.0664-10.459-2.457-3.0214-2.9882-4.3827-6.8396-5.4119-10.824-0.0996-0.29882-0.166-0.56443-0.23242-0.86325-0.66403-2.5898-1.1953-5.1795-1.7265-7.8025-0.166-0.89645-0.33203-1.7929-0.53123-2.7226-0.23242-1.2285-0.49803-2.4901-0.73045-3.7518-1.0625-5.4119-2.1581-10.824-3.2206-16.236-0.19921-0.92966-0.39842-1.8593-0.56443-2.789-1.4277-7.1384-2.8554-14.244-4.3495-21.349-1.7929-8.4333-3.3866-16.933-4.9803-25.433-1.8593-9.7946-3.7518-19.589-5.9432-29.284-0.49803-2.2577-0.99606-4.4823-1.4941-6.7068-0.0664-0.23242-0.0996-0.46482-0.166-0.73045-2.3905-10.724-4.6815-21.515-6.9724-32.272-0.166-0.89645-0.36522-1.7929-0.56443-2.6562-0.73045-3.4862-1.4609-6.9392-2.1581-10.392-0.23242-1.0625-0.46482-2.1249-0.69725-3.1874-1.2949-6.1424-2.457-12.285-3.453-18.46-0.03321-0.36522-0.03321-0.36522-0.0996-0.73045-0.0664-0.46482-0.166-0.92966-0.23242-1.3945-0.166-1.1621-0.166-1.1621-0.59763-2.2577-0.0664-0.46482-0.0664-0.92966-0.0996-1.4277 0-0.26562 0-0.56443-0.03321-0.86325-0.03321-1.3613-0.03321-2.7226-0.0664-4.0838 0-0.69725-0.03321-1.4277-0.0664-2.1249-0.19921-6.8728-0.19921-6.8728 1.6601-8.9978 0.79685-0.79685 0.79685-0.79685 1.5937-1.4277 0.26562-0.19921 0.53123-0.43163 0.79685-0.63084 3.619-2.7226 8.3337-2.3905 12.65-2.4237h1.4609c1.3613 0 2.7558-0.03321 4.117-0.03321h3.5858c3.7518-0.03321 7.5036-0.03321 11.255-0.0664 1.8593 0 3.7186 0 5.5779-0.03321 25.599-0.0996 51.198-0.166 147.25-0.29882 9.8942 0 19.755-0.03321 29.649-0.03321h1.0293c3.0878 0 6.1756 0 9.2302-0.03321h21.947 0.96285c13.447-0.03321 26.86-0.0664 40.274-0.0664h5.6443 6.7068c1.1289-0.03321 2.2577-0.03321 3.3866-0.03321h1.2617 0.59763 3.9842 3.9178zm-252.87 83.337c-0.166 0.166-0.29882 0.29882-0.46482 0.43163-2.1581 2.2245-3.8846 4.6151-5.4783 7.2712-0.23242 0.39842-0.49803 0.79685-0.73045 1.1953-3.4862 5.6443-5.8104 11.82-6.9392 18.328-0.0664 0.33203-0.13281 0.66403-0.19921 0.99606-1.4609 10.492 2.5566 22.212 8.8317 30.546 0.19921 0.29882 0.43163 0.59763 0.66403 0.89645 7.2712 9.2634 17.398 15.738 29.185 17.265 5.8436 0.56443 11.654 0.33203 17.298-1.2285 0.23242-0.0664 0.43163-0.13281 0.66403-0.166 4.7479-1.3281 9.2302-3.6522 13.281-6.4744 0.166-0.0996 0.29882-0.19921 0.46482-0.33203 5.5779-3.8846 10.16-8.8981 13.812-14.609 0.166-0.26562 0.166-0.26562 0.36522-0.53123 5.2459-8.0681 6.7068-19.224 4.9139-28.587-0.19921-0.83005-0.39842-1.6269-0.63084-2.4237-0.0664-0.23242-0.13281-0.46482-0.19921-0.69725-2.0917-7.2048-5.5779-13.513-10.425-19.224-0.23242-0.26562-0.46482-0.53123-0.69725-0.83005-7.5369-8.6989-18.593-12.849-29.849-13.779-12.882-0.76364-24.702 2.8222-33.866 11.953zm145.89 0.73045c-6.1756 7.0388-10.226 15.705-12.086 24.835-0.13281 0.49803-0.13281 0.49803-0.23242 1.0293-2.0585 10.757 0.86325 22.013 6.9724 31.011 0.69725 0.96285 1.4277 1.8925 2.2245 2.8222 0.13281 0.166 0.26562 0.29882 0.39842 0.46482 1.9589 2.3574 4.117 4.3162 6.574 6.1756 0.166 0.13281 0.33203 0.26562 0.49803 0.39842 9.197 7.1716 20.917 11.023 32.604 9.7946 9.9606-1.3613 19.025-5.7772 26.196-12.75 0.39842-0.39842 0.83005-0.76364 1.2285-1.1289 7.4373-6.9392 11.853-17.564 12.285-27.624 0.0996-4.6483-0.19921-9.031-1.4277-13.513-0.0996-0.26562-0.166-0.53123-0.23242-0.83005-3.3534-11.687-9.9274-22.411-20.818-28.421-16.8-8.9314-40.838-6.2088-54.186 7.7361z"/>
<path d="m288.86 141.48c3.3866 2.6562 5.3455 6.3416 6.7732 10.326 0.0996 0.29882 0.19921 0.59763 0.33203 0.89645 1.6269 5.3787 1.0957 11.754-1.5273 16.734-0.56443 0.92966-1.1289 1.7597-1.7929 2.623-0.23242 0.26562-0.43163 0.56443-0.66403 0.86325-4.0506 4.8807-10.127 7.1052-16.269 7.7693-5.6775 0.43163-10.857-0.73045-15.406-4.2498-4.7811-4.0838-8.2673-10.359-8.8317-16.667-0.36522-5.5115 0.46482-10.359 4.0174-14.841 0.73045-0.83005 1.4941-1.6269 2.2909-2.4237 0.19921-0.19921 0.39842-0.43163 0.59763-0.63084 8.4665-8.1345 21.648-7.1384 30.479-0.39842z"/>
<path d="m140.64 141.12c4.6483 3.8846 7.404 8.6989 8.2341 14.675 0.49803 6.8396-1.8593 12.949-6.2752 18.162-3.4198 3.785-8.4001 6.4744-13.48 6.8396-6.3748 0.29882-12.517-2.457-17.265-6.574-2.5898-2.4901-4.3162-5.3787-5.4783-8.7985-0.166-0.43163-0.166-0.43163-0.33203-0.86325-1.4941-4.8475-1.2285-10.757 0.66403-15.406 0.13281-0.36522 0.29882-0.69725 0.43163-1.0625 2.1581-4.7479 6.1092-8.2341 10.923-10.226 7.7693-2.8222 15.97-1.7929 22.577 3.2538z"/>
<path d="m213.14 238.45c0.86325 0.73045 1.6933 1.5273 2.457 2.3241 0.166 0.166 0.29882 0.29882 0.43163 0.46482 6.1092 6.4412 7.4704 14.775 8.2341 23.308-0.03321 1.1953-0.03321 1.1953-0.69725 1.7929-0.79685 0.0996-1.4941 0.0996-2.3241 0.0996-0.23242-0.03321-0.46482-0.03321-0.69725-0.03321-0.76364 0-1.5273-0.03321-2.2909-0.0664-0.46482 0-0.92966 0-1.4277-0.03321-1.2285-0.03321-2.457-0.0664-3.6854-0.0996-4.9471-0.13281-9.861-0.23242-14.808-0.26562-0.56443 0-1.1289 0-1.7265-0.03321-2.3241 0-4.6483-0.03321-6.9724-0.03321-1.4609-0.03321-2.9218-0.03321-4.3827-0.0664h-1.6269c-0.76364 0-1.4941 0-2.2577-0.03321h-0.66403c-1.5273 0-1.5273 0-2.2909-0.76364-0.03321-0.69725-0.03321-0.69725 0-1.5605 0-0.33203 0-0.66403 0.03321-0.99606 0-0.36522 0.03321-0.69725 0.03321-1.0625 0.03321-0.36522 0.03321-0.73045 0.0664-1.0957 0.43163-8.1345 2.0253-14.775 8.3337-20.386 7.7029-6.5076 17.995-7.8025 26.263-1.4609z"/>
</g>
</g>
<g fill="#596ddb" id="text">
<path d="m161.06 307.44h12.6v50.4h-12.6v-30.135l-18.97 30.135h-12.6v-50.4h12.6v30.135zm52.614 0h13.169l-22.689 50.4h-13.178l6.3-13.965-18.034-36.435h13.379l11.174 23.056zm40.723 16.966c2.1 0 4.1184 0.33542 6.055 1.0062 1.9308 0.66501 3.6342 1.6771 5.11 3.0363 1.4817 1.365 2.6746 3.0713 3.5788 5.1188 0.91 2.0533 1.365 4.4654 1.365 7.2363 0 2.8584-0.50167 5.3988-1.505 7.6213-1.0033 2.2167-2.3742 4.1008-4.1125 5.6525-1.7442 1.5517-3.7975 2.7213-6.16 3.5088-2.3625 0.78751-4.8796 1.1813-7.5513 1.1813-2.7184 0-5.2354-0.38209-7.5513-1.1463s-4.3196-1.8258-6.0113-3.185c-1.6917-1.3592-3.0625-2.9692-4.1125-4.83-1.05-1.8608-1.6946-3.9142-1.9338-6.16h12.521c0.33833 1.0967 1.0675 2.1233 2.1875 3.08s2.6571 1.435 4.6113 1.435c2.0067 0 3.6546-0.63292 4.9438-1.8988 1.2892-1.2658 1.9338-2.9488 1.9338-5.0488s-0.67959-3.745-2.0388-4.935c-1.365-1.1958-2.9517-1.7938-4.76-1.7938-1.435 0-2.7242 0.28584-3.8675 0.85751-1.1433 0.5775-2.0504 1.4379-2.7213 2.5813h-12.451l2.3625-30.284h33.206v10.955h-22.47l-1.0062 10.238c1.05-1.1958 2.4471-2.1992 4.1913-3.01 1.7383-0.81084 3.8004-1.2163 6.1863-1.2163z"/>
</g>
</g>
    </g>
  </g>
</svg>